<svg xmlns="http://www.w3.org/2000/svg" xmlns:xlink="http://www.w3.org/1999/xlink" width="132.699" height="202.64" viewBox="0 0 132.699 202.64">
  <defs>
    <clipPath id="clip-path">
      <rect id="Rectangle_6053" data-name="Rectangle 6053" width="132.699" height="202.64" transform="translate(991.881 1243.7)" fill="none"/>
    </clipPath>
  </defs>
  <g id="Group_63486" data-name="Group 63486" transform="translate(-991.881 -1243.7)" opacity="0.17" style="mix-blend-mode: multiply;isolation: isolate">
    <g id="Group_63485" data-name="Group 63485">
      <g id="Group_63484" data-name="Group 63484" clip-path="url(#clip-path)">
        <rect id="Rectangle_6052" data-name="Rectangle 6052" width="132.694" height="202.647" transform="translate(991.881 1243.696)"/>
      </g>
    </g>
  </g>
</svg>
