<svg xmlns="http://www.w3.org/2000/svg" xmlns:xlink="http://www.w3.org/1999/xlink" width="2467.54" height="392.965" viewBox="0 0 2467.54 392.965">
  <defs>
    <clipPath id="clip-path">
      <rect id="Rectangle_5973" data-name="Rectangle 5973" width="2467.54" height="392.965" transform="translate(0 2373.56)" fill="none"/>
    </clipPath>
    <clipPath id="clip-path-2">
      <rect id="Rectangle_5970" data-name="Rectangle 5970" width="1216.14" height="392.965" transform="translate(1251.4 2373.56)" fill="none"/>
    </clipPath>
    <clipPath id="clip-path-3">
      <rect id="Rectangle_5972" data-name="Rectangle 5972" width="1216.14" height="392.965" transform="translate(0 2373.56)" fill="none"/>
    </clipPath>
  </defs>
  <g id="Group_63388" data-name="Group 63388" transform="translate(0 -2373.56)" opacity="0.1" style="mix-blend-mode: multiply;isolation: isolate">
    <g id="Group_63387" data-name="Group 63387">
      <g id="Group_63386" data-name="Group 63386" clip-path="url(#clip-path)">
        <g id="Group_63382" data-name="Group 63382" opacity="0.41">
          <g id="Group_63381" data-name="Group 63381">
            <g id="Group_63380" data-name="Group 63380" clip-path="url(#clip-path-2)">
              <path id="Path_339865" data-name="Path 339865" d="M1582.422,2533.529c-16.953-17.113-37.828-25.7-62.348-25.7h-89.808v90c0,1-.109,1.907-.109,2.892q0,46.95,23.171,74.753,22.983,27.542,61.952,27.766v.024h59.137v34.085H1336.511v-.024q-25.992-1.353-38.45-21.029-13.341-21.216-13.367-53.056c0-.369.041-.705.041-1.1v-18.5h-.041V2488.723l-33.209,40.707v131.692c-.023.969-.084,1.905-.084,2.853q0,46.986,23.128,74.79c15.317,18.385,36.058,27.628,61.982,27.733v.022h271.35V2609.673c0-.2.012-.384.012-.58q0-49.861-25.451-75.564m-8.005,75.564v65.016H1515.28v-.081c-17.327-.879-30.2-7.868-38.461-21.005q-13.3-21.216-13.351-53.023v-63.007h56.606v-.044H1521c21.153.449,36.222,9.544,45.037,27.5,5.557,11.44,8.379,26.377,8.471,44.646Z"/>
              <path id="Path_339866" data-name="Path 339866" d="M1506.635,2766.5v.022H1843V2609.673c0-.2.041-.384.041-.58q0-49.861-25.45-75.564-25.494-25.67-62.31-25.7H1665.4v90c0,1-.1,1.907-.1,2.892q0,46.95,23.152,74.753,23,27.542,62,27.766v.024h59.132v34.085H1506.635v-.024m302.949-128.241v65.016h-59.132v-.081c-17.335-.879-30.217-7.868-38.463-21.005q-13.367-21.216-13.362-53.023v-63.007h56.656v-.044h.84c21.24.449,36.3,9.544,45.076,27.5,5.624,11.44,8.385,26.377,8.512,44.646Z"/>
              <path id="Path_339867" data-name="Path 339867" d="M2032.509,2533.529c-16.952-17.113-37.773-25.7-62.3-25.7h-89.868v90c0,1-.085,1.907-.085,2.892q0,46.95,23.156,74.753,22.97,27.542,61.954,27.766v.024H2024.5v34.085H1880.258v29.162h177.679V2609.093q0-49.861-25.428-75.564m-8.009,75.564v65.016h-59.132v-.081c-17.284-.879-30.192-7.868-38.463-21.005q-13.329-21.216-13.354-53.023c0-.382.041-.705.041-1.088v-61.919h56.619v-.044h.806c21.249.449,36.326,9.544,45.123,27.5,5.581,11.44,8.384,26.377,8.512,44.646Z"/>
              <path id="Path_339868" data-name="Path 339868" d="M1699.656,2487.613c13.762,0,24.865-11.566,24.865-25.824,0-14.291-11.1-25.858-24.865-25.858-13.688,0-24.816,11.567-24.816,25.858,0,14.258,11.128,25.824,24.816,25.824"/>
              <path id="Path_339869" data-name="Path 339869" d="M1506.611,2487.613c13.762,0,24.865-11.566,24.865-25.824,0-14.291-11.1-25.858-24.865-25.858-13.689,0-24.816,11.567-24.816,25.858,0,14.258,11.127,25.824,24.816,25.824"/>
              <path id="Path_339870" data-name="Path 339870" d="M1764.612,2487.613c13.785,0,24.889-11.566,24.889-25.824,0-14.291-11.1-25.858-24.889-25.858-13.713,0-24.816,11.567-24.816,25.858,0,14.258,11.1,25.824,24.816,25.824"/>
              <path id="Path_339871" data-name="Path 339871" d="M2167.547,2396.994v369.528H2200.8V2435.931Z"/>
              <path id="Path_339872" data-name="Path 339872" d="M2096.114,2435.931v330.591h33.256V2396.994Z"/>
              <rect id="Rectangle_5969" data-name="Rectangle 5969" width="73.492" height="29.143" transform="translate(2042.931 2737.381)"/>
              <path id="Path_339873" data-name="Path 339873" d="M2436.884,2427.215v24.53h6.13V2742h-142.57c-21.053,6.2-40.989,14.245-56.425,24.528h223.525V2427.215Z"/>
              <path id="Path_339874" data-name="Path 339874" d="M2200.8,2765.7v-330.4l2.562-3.313c1.837-2.384,46.478-58.419,161.642-58.419a395.527,395.527,0,0,1,44.651,2.634l10.875,1.243v329.269l-11.713.528c-1.323.061-133.219,6.579-187.49,56.083Zm24.526-321.557V2729.83c54.811-34.133,139.634-43.836,170.679-46.327V2399.469c-10.607-.916-21-1.381-31-1.381-88.552,0-129.562,35.6-139.678,46.05"/>
            </g>
          </g>
        </g>
        <g id="Group_63385" data-name="Group 63385" opacity="0.41">
          <g id="Group_63384" data-name="Group 63384">
            <g id="Group_63383" data-name="Group 63383" clip-path="url(#clip-path-3)">
              <path id="Path_339875" data-name="Path 339875" d="M331.021,2533.529c-16.953-17.113-37.828-25.7-62.347-25.7H178.865v90c0,1-.109,1.907-.109,2.892q0,46.95,23.171,74.753,22.983,27.542,61.952,27.766v.024h59.137v34.085H85.11v-.024q-25.992-1.353-38.45-21.029-13.341-21.216-13.367-53.056c0-.369.041-.705.041-1.1v-18.5h-.041V2488.723L.084,2529.43v131.692c-.023.969-.084,1.905-.084,2.853q0,46.986,23.128,74.79c15.317,18.385,36.058,27.628,61.982,27.733v.022H356.46V2609.673c0-.2.012-.384.012-.58q0-49.861-25.451-75.564m-8.005,75.564v65.016H263.879v-.081c-17.327-.879-30.2-7.868-38.461-21.005q-13.3-21.216-13.351-53.023v-63.007h56.607v-.044h.926c21.153.449,36.222,9.544,45.037,27.5,5.557,11.44,8.379,26.377,8.471,44.646Z"/>
              <path id="Path_339876" data-name="Path 339876" d="M255.234,2766.5v.022H591.6V2609.673c0-.2.042-.384.042-.58q0-49.861-25.451-75.564-25.494-25.67-62.31-25.7H414v90c0,1-.1,1.907-.1,2.892q0,46.95,23.152,74.753,23,27.542,62,27.766v.024h59.132v34.085H255.234v-.024m302.949-128.241v65.016H499.051v-.081c-17.335-.879-30.217-7.868-38.463-21.005q-13.367-21.216-13.362-53.023v-63.007h56.656v-.044h.84c21.24.449,36.3,9.544,45.076,27.5,5.624,11.44,8.385,26.377,8.512,44.646Z"/>
              <path id="Path_339877" data-name="Path 339877" d="M781.108,2533.529c-16.952-17.113-37.773-25.7-62.3-25.7H628.942v90c0,1-.085,1.907-.085,2.892q0,46.95,23.156,74.753,22.969,27.542,61.954,27.766v.024H773.1v34.085H628.857v29.162H806.536V2609.093q0-49.861-25.428-75.564m-8.009,75.564v65.016H713.967v-.081c-17.284-.879-30.192-7.868-38.463-21.005Q662.175,2631.807,662.15,2600c0-.382.041-.705.041-1.088v-61.919H718.81v-.044h.806c21.249.449,36.326,9.544,45.123,27.5,5.581,11.44,8.384,26.377,8.512,44.646Z"/>
              <path id="Path_339878" data-name="Path 339878" d="M448.255,2487.613c13.762,0,24.865-11.566,24.865-25.824,0-14.291-11.1-25.858-24.865-25.858-13.689,0-24.816,11.567-24.816,25.858,0,14.258,11.127,25.824,24.816,25.824"/>
              <path id="Path_339879" data-name="Path 339879" d="M255.21,2487.613c13.762,0,24.865-11.566,24.865-25.824,0-14.291-11.1-25.858-24.865-25.858-13.689,0-24.816,11.567-24.816,25.858,0,14.258,11.127,25.824,24.816,25.824"/>
              <path id="Path_339880" data-name="Path 339880" d="M513.211,2487.613c13.785,0,24.889-11.566,24.889-25.824,0-14.291-11.1-25.858-24.889-25.858-13.713,0-24.816,11.567-24.816,25.858,0,14.258,11.1,25.824,24.816,25.824"/>
              <path id="Path_339881" data-name="Path 339881" d="M916.146,2396.994v369.528H949.4V2435.931Z"/>
              <path id="Path_339882" data-name="Path 339882" d="M844.713,2435.931v330.591h33.256V2396.994Z"/>
              <rect id="Rectangle_5971" data-name="Rectangle 5971" width="73.492" height="29.143" transform="translate(791.53 2737.381)"/>
              <path id="Path_339883" data-name="Path 339883" d="M1185.483,2427.215v24.53h6.13V2742h-142.57c-21.053,6.2-40.989,14.245-56.424,24.528h223.524V2427.215Z"/>
              <path id="Path_339884" data-name="Path 339884" d="M949.4,2765.7v-330.4l2.562-3.313c1.837-2.384,46.478-58.419,161.642-58.419a395.542,395.542,0,0,1,44.651,2.634l10.875,1.243v329.269l-11.713.528c-1.323.061-133.219,6.579-187.49,56.083Zm24.526-321.557V2729.83c54.811-34.133,139.634-43.836,170.679-46.327V2399.469c-10.607-.916-21-1.381-31-1.381-88.552,0-129.562,35.6-139.678,46.05"/>
            </g>
          </g>
        </g>
      </g>
    </g>
  </g>
</svg>
