<svg xmlns="http://www.w3.org/2000/svg" width="1920" height="703.684" viewBox="0 0 1920 703.684">
  <rect id="Rectangle_5968" data-name="Rectangle 5968" width="1920" height="703.684" fill="#84c872"/>
</svg>
