<svg id="Youtube" xmlns="http://www.w3.org/2000/svg" width="37.297" height="38" viewBox="0 0 37.297 38">
  <path id="Path_339940" data-name="Path 339940" d="M1221.887,3073.961h0a19,19,0,1,1,18.648-19,18.826,18.826,0,0,1-18.648,19m0-36.919a17.922,17.922,0,1,0,17.588,17.919A17.756,17.756,0,0,0,1221.887,3037.042Z" transform="translate(-1203.239 -3035.961)" fill="#fff"/>
  <path id="Path_339942" data-name="Path 339942" d="M1225.7,3046.479h-11.018c-2.106,0-2.961,1.74-2.961,3.886v4.111c0,2.147.945,3.888,3.052,3.888h10.84c2.106,0,2.827-1.74,2.827-3.888v-4.111c0-2.146-.632-3.886-2.739-3.886m-7.3,8.463V3050.1l4.554,2.422Z" transform="translate(-1201.435 -3033.421)" fill="#fff"/>
</svg>
